%YAML 1.1
%TAG !u! tag:unity3d.com,2011:
--- !u!21 &2100000
Material:
  serializedVersion: 6
  m_ObjectHideFlags: 0
  m_CorrespondingSourceObject: {fileID: 0}
  m_PrefabInternal: {fileID: 0}
  m_Name: GlowingSphereRing
  m_Shader: {fileID: 4800000, guid: 078b2a90d062e49c9903390f113619d3, type: 3}
  m_ShaderKeywords: COLR_1_2
  m_LightmapFlags: 5
  m_EnableInstancingVariants: 0
  m_DoubleSidedGI: 0
  m_CustomRenderQueue: 2000
  stringTagMap: {}
  disabledShaderPasses: []
  m_SavedProperties:
    serializedVersion: 3
    m_TexEnvs:
    - _BumpMap:
        m_Texture: {fileID: 0}
        m_Scale: {x: 1, y: 1}
        m_Offset: {x: 0, y: 0}
    - _DetailAlbedoMap:
        m_Texture: {fileID: 0}
        m_Scale: {x: 1, y: 1}
        m_Offset: {x: 0, y: 0}
    - _DetailMask:
        m_Texture: {fileID: 0}
        m_Scale: {x: 1, y: 1}
        m_Offset: {x: 0, y: 0}
    - _DetailNormalMap:
        m_Texture: {fileID: 0}
        m_Scale: {x: 1, y: 1}
        m_Offset: {x: 0, y: 0}
    - _EmissionMap:
        m_Texture: {fileID: 0}
        m_Scale: {x: 1, y: 1}
        m_Offset: {x: 0, y: 0}
    - _MainTex:
        m_Texture: {fileID: 0}
        m_Scale: {x: 1, y: 1}
        m_Offset: {x: 0, y: 0}
    - _MetallicGlossMap:
        m_Texture: {fileID: 0}
        m_Scale: {x: 1, y: 1}
        m_Offset: {x: 0, y: 0}
    - _OcclusionMap:
        m_Texture: {fileID: 0}
        m_Scale: {x: 1, y: 1}
        m_Offset: {x: 0, y: 0}
    - _ParallaxMap:
        m_Texture: {fileID: 0}
        m_Scale: {x: 1, y: 1}
        m_Offset: {x: 0, y: 0}
    m_Floats:
    - _AmbientPower: 2
    - _BumpScale: 1
    - _Cutoff: 0.5
    - _DetailNormalMapScale: 1
    - _DstBlend: 0
    - _Glossiness: 0.5
    - _GradientHeight: 139.3
    - _GradientYStartPos: 42.81
    - _IsWorldSpace: 0
    - _LightmapPower: 0.1
    - _Metallic: 0
    - _Mode: 0
    - _OcclusionStrength: 1
    - _Parallax: 0.02
    - _Rotation: 0
    - _ShadowPower: 0.25
    - _SrcBlend: 1
    - _UVSec: 0
    - _UseLightMap: 0
    - _ZWrite: 1
    m_Colors:
    - _AmbientColor: {r: 0.1660359, g: 0.6102941, b: 0.37131387, a: 0}
    - _BackBottomColor: {r: 0, g: 0, b: 0, a: 0}
    - _BackColor: {r: 0, g: 0, b: 0, a: 0}
    - _BackTopColor: {r: 0.029411793, g: 0.029411793, b: 0.029411793, a: 0}
    - _BottomColor: {r: 0, g: 0, b: 0, a: 0}
    - _Color: {r: 1, g: 1, b: 1, a: 1}
    - _EmissionColor: {r: 0, g: 0, b: 0, a: 1}
    - _FrontBottomColor: {r: 0, g: 0, b: 0, a: 0}
    - _FrontColor: {r: 0, g: 0, b: 0, a: 0}
    - _FrontTopColor: {r: 0.029411793, g: 0.029411793, b: 0.029411793, a: 0}
    - _LeftBottomColor: {r: 0, g: 0, b: 0, a: 0}
    - _LeftColor: {r: 0.102941155, g: 0.102941155, b: 0.102941155, a: 0}
    - _LeftTopColor: {r: 0.029411793, g: 0.029411793, b: 0.029411793, a: 0}
    - _LightTint: {r: 1, g: 1, b: 1, a: 0}
    - _LightmapColor: {r: 0, g: 0, b: 0, a: 0}
    - _RightBottomColor: {r: 0, g: 0, b: 0, a: 0}
    - _RightColor: {r: 0, g: 0, b: 0, a: 0}
    - _RightTopColor: {r: 0.029411793, g: 0.029411793, b: 0.029411793, a: 0}
    - _TopColor: {r: 0.029411793, g: 0.029411793, b: 0.029411793, a: 0}
