%YAML 1.1
%TAG !u! tag:unity3d.com,2011:
--- !u!21 &2100000
Material:
  serializedVersion: 6
  m_ObjectHideFlags: 0
  m_CorrespondingSourceObject: {fileID: 0}
  m_PrefabInternal: {fileID: 0}
  m_Name: point_white
  m_Shader: {fileID: 200, guid: 0000000000000000f000000000000000, type: 0}
  m_ShaderKeywords: COLR_1_2
  m_LightmapFlags: 4
  m_EnableInstancingVariants: 0
  m_DoubleSidedGI: 0
  m_CustomRenderQueue: -1
  stringTagMap: {}
  disabledShaderPasses: []
  m_SavedProperties:
    serializedVersion: 3
    m_TexEnvs:
    - _BumpMap:
        m_Texture: {fileID: 0}
        m_Scale: {x: 1, y: 1}
        m_Offset: {x: 0, y: 0}
    - _DetailAlbedoMap:
        m_Texture: {fileID: 0}
        m_Scale: {x: 1, y: 1}
        m_Offset: {x: 0, y: 0}
    - _DetailMask:
        m_Texture: {fileID: 0}
        m_Scale: {x: 1, y: 1}
        m_Offset: {x: 0, y: 0}
    - _DetailNormalMap:
        m_Texture: {fileID: 0}
        m_Scale: {x: 1, y: 1}
        m_Offset: {x: 0, y: 0}
    - _EmissionMap:
        m_Texture: {fileID: 0}
        m_Scale: {x: 1, y: 1}
        m_Offset: {x: 0, y: 0}
    - _MainTex:
        m_Texture: {fileID: 10904, guid: 0000000000000000f000000000000000, type: 0}
        m_Scale: {x: 1, y: 1}
        m_Offset: {x: 0, y: 0}
    - _MetallicGlossMap:
        m_Texture: {fileID: 0}
        m_Scale: {x: 1, y: 1}
        m_Offset: {x: 0, y: 0}
    - _OcclusionMap:
        m_Texture: {fileID: 0}
        m_Scale: {x: 1, y: 1}
        m_Offset: {x: 0, y: 0}
    - _ParallaxMap:
        m_Texture: {fileID: 0}
        m_Scale: {x: 1, y: 1}
        m_Offset: {x: 0, y: 0}
    - _SpecGlossMap:
        m_Texture: {fileID: 0}
        m_Scale: {x: 1, y: 1}
        m_Offset: {x: 0, y: 0}
    m_Floats:
    - _AmbientPower: 0
    - _BumpScale: 1
    - _Cutoff: 0.5
    - _DetailNormalMapScale: 1
    - _DstBlend: 10
    - _GlossMapScale: 1
    - _Glossiness: 0.5
    - _GlossyReflections: 0
    - _GradientHeight: 10
    - _GradientYStartPos: 0
    - _InvFade: 1
    - _LightmapPower: 0.1
    - _Metallic: 0
    - _Mode: 2
    - _OcclusionStrength: 1
    - _Parallax: 0.02
    - _Rotation: 0
    - _SmoothnessTextureChannel: 0
    - _SpecularHighlights: 0
    - _SrcBlend: 5
    - _UVSec: 0
    - _UseLightMap: 1
    - _ZWrite: 0
    m_Colors:
    - _AmbientColor: {r: 1, g: 1, b: 1, a: 0}
    - _BackBottomColor: {r: 0.54509807, g: 0.54509807, b: 0.54509807, a: 0}
    - _BackColor: {r: 0.9921569, g: 0.9921569, b: 0.9921569, a: 0}
    - _BackTopColor: {r: 0.9960785, g: 0.9960785, b: 0.9960785, a: 0}
    - _BottomColor: {r: 0.54509807, g: 0.54509807, b: 0.54509807, a: 0}
    - _Color: {r: 1, g: 1, b: 1, a: 1}
    - _EmissionColor: {r: 0, g: 0, b: 0, a: 1}
    - _FrontBottomColor: {r: 0.54509807, g: 0.54509807, b: 0.54509807, a: 0}
    - _FrontColor: {r: 0.625, g: 0.625, b: 0.625, a: 0}
    - _FrontTopColor: {r: 0.9960785, g: 0.9960785, b: 0.9960785, a: 0}
    - _LeftBottomColor: {r: 0.54509807, g: 0.54509807, b: 0.54509807, a: 0}
    - _LeftColor: {r: 1, g: 1, b: 1, a: 0}
    - _LeftTopColor: {r: 0.9960785, g: 0.9960785, b: 0.9960785, a: 0}
    - _LightTint: {r: 1, g: 1, b: 1, a: 0}
    - _LightmapColor: {r: 0, g: 0, b: 0, a: 0}
    - _Offset: {r: 0, g: 0, b: 0, a: 1}
    - _RightBottomColor: {r: 0.54509807, g: 0.54509807, b: 0.54509807, a: 0}
    - _RightColor: {r: 0.61960787, g: 0.61960787, b: 0.61960787, a: 0}
    - _RightTopColor: {r: 0.9960785, g: 0.9960785, b: 0.9960785, a: 0}
    - _SpecColor: {r: 0.2, g: 0.2, b: 0.2, a: 1}
    - _TintColor: {r: 1, g: 1, b: 1, a: 0.9411765}
    - _TopColor: {r: 0.9960785, g: 0.9960785, b: 0.9960785, a: 0}
