%YAML 1.1
%TAG !u! tag:unity3d.com,2011:
--- !u!21 &2100000
Material:
  serializedVersion: 6
  m_ObjectHideFlags: 0
  m_CorrespondingSourceObject: {fileID: 0}
  m_PrefabInternal: {fileID: 0}
  m_Name: Icebergs
  m_Shader: {fileID: 4800000, guid: e205ec5a2dab342e78812532c2f67fd5, type: 3}
  m_ShaderKeywords: BACK_GRADIENT_ON COLR_1_2 FRONT_GRADIENT_ON LEFT_GRADIENT_ON LIGHTMAP_COLR_ON
    RIGHT_GRADIENT_ON
  m_LightmapFlags: 5
  m_EnableInstancingVariants: 0
  m_DoubleSidedGI: 0
  m_CustomRenderQueue: 2000
  stringTagMap: {}
  disabledShaderPasses: []
  m_SavedProperties:
    serializedVersion: 3
    m_TexEnvs:
    - _LayoutTexture:
        m_Texture: {fileID: 0}
        m_Scale: {x: 1, y: 1}
        m_Offset: {x: 0, y: 0}
    - _MainTex:
        m_Texture: {fileID: 0}
        m_Scale: {x: 1, y: 1}
        m_Offset: {x: 0, y: 0}
    m_Floats:
    - _AmbientPower: 0.35
    - _DistanceNear: 50
    - _FogAnimationFreq: 0.1
    - _FogAnimationHeight: 0.1
    - _FogDensity: 1
    - _FogEnd: 50
    - _FogHeight: 126.5
    - _FogStart: 0
    - _FogYStartPos: -66.6
    - _GradientHeight: 56.17
    - _GradientYStartPos: -19.4
    - _IsWorldSpace: 1
    - _LayoutTexturePower: 0
    - _LightmapPower: 0.96
    - _MaxY: 50
    - _MinY: -50
    - _RimPower: 0.15
    - _ShadowPower: 1
    - _UseFogDistance: 0
    - _UseLightMap: 1
    m_Colors:
    - _AmbientColor: {r: 0.6156863, g: 0.20000002, b: 0.97647065, a: 0}
    - _BackBottomColor: {r: 0.79215693, g: 0.90196085, b: 0.69411767, a: 0}
    - _BackColor: {r: 0.7960785, g: 0.9058824, b: 0.69803923, a: 0}
    - _BackTopColor: {r: 0.7960785, g: 0.9058824, b: 0.69803923, a: 0}
    - _BaseScale: {r: 1, g: 1, b: 1, a: 0}
    - _BottomColor: {r: 0.9044118, g: 0.12635165, b: 0.12635165, a: 0}
    - _Color: {r: 1, g: 1, b: 1, a: 1}
    - _ColorFar: {r: 0.89705896, g: 0, b: 1, a: 1}
    - _ColorNear: {r: 0, g: 1, b: 1, a: 1}
    - _FogColor: {r: 1, g: 1, b: 1, a: 1}
    - _FrontBottomColor: {r: 0.33333334, g: 0.5647059, b: 0.57254905, a: 0}
    - _FrontColor: {r: 0.32050174, g: 0.513795, b: 0.5588235, a: 0}
    - _FrontTopColor: {r: 0.32156864, g: 0.5137255, b: 0.56078434, a: 0}
    - _LeftBottomColor: {r: 0.8235295, g: 0.9725491, b: 0.9960785, a: 0}
    - _LeftColor: {r: 0.30147058, g: 0.30147058, b: 0.30147058, a: 0}
    - _LeftTopColor: {r: 0.3019608, g: 0.3019608, b: 0.3019608, a: 0}
    - _LightTint: {r: 1, g: 1, b: 1, a: 0}
    - _LightmapColor: {r: 0.48354465, g: 0.07169118, b: 0.5735294, a: 0}
    - _Point: {r: -38.3, g: 25.26, b: -4.15, a: 1}
    - _RightBottomColor: {r: 0.41176474, g: 0.41960788, b: 0.7294118, a: 0}
    - _RightColor: {r: 0.059983492, g: 1, b: 0, a: 0}
    - _RightTopColor: {r: 0.28627452, g: 0.9843138, b: 0.2392157, a: 0}
    - _RimColor: {r: 0, g: 1, b: 0, a: 0}
    - _TopColor: {r: 0.85280156, g: 0.9117647, b: 0.120674744, a: 0}
