%YAML 1.1
%TAG !u! tag:unity3d.com,2011:
--- !u!1001 &100100000
Prefab:
  m_ObjectHideFlags: 1
  serializedVersion: 2
  m_Modification:
    m_TransformParent: {fileID: 0}
    m_Modifications: []
    m_RemovedComponents: []
  m_ParentPrefab: {fileID: 0}
  m_RootGameObject: {fileID: 1594268665238676}
  m_IsPrefabParent: 1
--- !u!1 &1594268665238676
GameObject:
  m_ObjectHideFlags: 0
  m_PrefabParentObject: {fileID: 0}
  m_PrefabInternal: {fileID: 100100000}
  serializedVersion: 5
  m_Component:
  - component: {fileID: 4808591689080258}
  - component: {fileID: 20864892784671438}
  - component: {fileID: 124394914384526778}
  - component: {fileID: 81650824070811946}
  - component: {fileID: 114390729459505710}
  m_Layer: 0
  m_Name: Camera
  m_TagString: Untagged
  m_Icon: {fileID: 0}
  m_NavMeshLayer: 0
  m_StaticEditorFlags: 0
  m_IsActive: 1
--- !u!4 &4808591689080258
Transform:
  m_ObjectHideFlags: 1
  m_PrefabParentObject: {fileID: 0}
  m_PrefabInternal: {fileID: 100100000}
  m_GameObject: {fileID: 1594268665238676}
  m_LocalRotation: {x: 0.3053629, y: 0, z: 0, w: 0.95223606}
  m_LocalPosition: {x: 1236.2, y: 50.16, z: 396.2}
  m_LocalScale: {x: 1, y: 1, z: 1}
  m_Children: []
  m_Father: {fileID: 0}
  m_RootOrder: 0
  m_LocalEulerAnglesHint: {x: 35.56, y: 0, z: 0}
--- !u!20 &20864892784671438
Camera:
  m_ObjectHideFlags: 1
  m_PrefabParentObject: {fileID: 0}
  m_PrefabInternal: {fileID: 100100000}
  m_GameObject: {fileID: 1594268665238676}
  m_Enabled: 1
  serializedVersion: 2
  m_ClearFlags: 1
  m_BackGroundColor: {r: 0.19215687, g: 0.3019608, b: 0.4745098, a: 0}
  m_NormalizedViewPortRect:
    serializedVersion: 2
    x: 0
    y: 0
    width: 1
    height: 1
  near clip plane: 0.3
  far clip plane: 1000
  field of view: 60
  orthographic: 0
  orthographic size: 5
  m_Depth: 0
  m_CullingMask:
    serializedVersion: 2
    m_Bits: 4294967295
  m_RenderingPath: -1
  m_TargetTexture: {fileID: 0}
  m_TargetDisplay: 0
  m_TargetEye: 3
  m_HDR: 1
  m_AllowMSAA: 1
  m_AllowDynamicResolution: 0
  m_ForceIntoRT: 0
  m_OcclusionCulling: 1
  m_StereoConvergence: 10
  m_StereoSeparation: 0.022
--- !u!81 &81650824070811946
AudioListener:
  m_ObjectHideFlags: 1
  m_PrefabParentObject: {fileID: 0}
  m_PrefabInternal: {fileID: 100100000}
  m_GameObject: {fileID: 1594268665238676}
  m_Enabled: 1
--- !u!114 &114390729459505710
MonoBehaviour:
  m_ObjectHideFlags: 1
  m_PrefabParentObject: {fileID: 0}
  m_PrefabInternal: {fileID: 100100000}
  m_GameObject: {fileID: 1594268665238676}
  m_Enabled: 1
  m_EditorHideFlags: 0
  m_Script: {fileID: 11500000, guid: 54415757aaddf4b8a9cd7122fd120cc6, type: 3}
  m_Name: 
  m_EditorClassIdentifier: 
  _preset: 30
  _quality: 0
  _compareMode: 0
  _compareLineAngle: 1.4
  _compareLineWidth: 0.002
  _dither: 0.022
  _ditherDepth: 0
  _sharpenMinDepth: 0
  _sharpenMaxDepth: 0.999
  _sharpen: 4.75
  _sharpenDepthThreshold: 0.035
  _tintColor: {r: 1, g: 1, b: 1, a: 0}
  _sharpenRelaxation: 0.075
  _sharpenClamp: 0.5
  _sharpenMotionSensibility: 0.5
  _saturate: 1.5
  _contrast: 1.03
  _brightness: 1.05
  _daltonize: 0
  _vignetting: 0
  _vignettingColor: {r: 1, g: 0.0627451, b: 0.0627451, a: 0.07058824}
  _vignettingCircularShape: 1
  _vignettingMask: {fileID: 0}
  _frame: 0
  _frameColor: {r: 1, g: 1, b: 1, a: 0.047}
  _frameMask: {fileID: 0}
  _sepia: 0
  _sepiaIntensity: 1
  _nightVision: 0
  _nightVisionColor: {r: 0.5, g: 1, b: 0.5, a: 0.5}
  _outline: 1
  _outlineColor: {r: 1, g: 1, b: 1, a: 0.019607844}
  _outlineMode: 1
  _thermalVision: 0
  _lensDirt: 0
  _lensDirtThreshold: 0.5
  _lensDirtIntensity: 0.9
  _lensDirtTexture: {fileID: 2800000, guid: dec70c1ae0ce346849f747716f782eb8, type: 3}
  _bloom: 0
  _bloomCullingMask:
    serializedVersion: 2
    m_Bits: 311
  _bloomIntensity: 1
  _bloomAntiflicker: 1
  _bloomUltra: 1
  _bloomThreshold: 0.75
  _bloomCustomize: 0
  _bloomDebug: 0
  _bloomWeight0: 0.5
  _bloomWeight1: 0.5
  _bloomWeight2: 0.5
  _bloomWeight3: 0.5
  _bloomWeight4: 0.5
  _bloomWeight5: 0.5
  _bloomBlur: 1
  _bloomDepthAtten: 0
  _anamorphicFlares: 0
  _anamorphicFlaresIntensity: 1
  _anamorphicFlaresAntiflicker: 0
  _anamorphicFlaresUltra: 0
  _anamorphicFlaresThreshold: 0.75
  _anamorphicFlaresSpread: 1
  _anamorphicFlaresVertical: 0
  _anamorphicFlaresTint: {r: 0.5, g: 0.5, b: 1, a: 0}
  _depthOfField: 1
  _depthOfFieldTransparencySupport: 0
  _depthOfFieldTargetFocus: {fileID: 0}
  _depthOfFieldDebug: 0
  _depthOfFieldAutofocus: 0
  _depthOfFieldAutofocusLayerMask:
    serializedVersion: 2
    m_Bits: 4294967295
  _depthOfFieldExclusionLayerMask:
    serializedVersion: 2
    m_Bits: 0
  _depthOfFieldDistance: 1
  _depthOfFieldFocusSpeed: 1
  _depthOfFieldDownsampling: 2
  _depthOfFieldMaxSamples: 4
  _depthOfFieldFocalLength: 0.05
  _depthOfFieldAperture: 2.8
  _depthOfFieldForegroundBlur: 1
  _depthOfFieldForegroundDistance: 0.25
  _depthOfFieldBokeh: 1
  _depthOfFieldBokehThreshold: 1
  _depthOfFieldBokehIntensity: 2
  _eyeAdaptation: 0
  _eyeAdaptationMinExposure: 0.2
  _eyeAdaptationMaxExposure: 5
  _eyeAdaptationSpeedToLight: 1
  _eyeAdaptationSpeedToDark: 0.7
  _purkinje: 0
  _purkinjeAmount: 1
  _purkinjeLuminanceThreshold: 0.15
  _tonemap: 0
  _sunFlares: 0
  _sun: {fileID: 0}
  _sunFlaresIntensity: 1
  _sunFlaresSolarWindSpeed: 0.01
  _sunFlaresTint: {r: 1, g: 1, b: 1, a: 1}
  _sunFlaresDownsampling: 1
  _sunFlaresSunIntensity: 0.1
  _sunFlaresSunDiskSize: 0.05
  _sunFlaresSunRayDiffractionIntensity: 3.5
  _sunFlaresSunRayDiffractionThreshold: 0.13
  _sunFlaresCoronaRays1Length: 0.02
  _sunFlaresCoronaRays1Streaks: 12
  _sunFlaresCoronaRays1Spread: 0.001
  _sunFlaresCoronaRays1AngleOffset: 0
  _sunFlaresCoronaRays2Length: 0.05
  _sunFlaresCoronaRays2Streaks: 12
  _sunFlaresCoronaRays2Spread: 0.1
  _sunFlaresCoronaRays2AngleOffset: 0
  _sunFlaresGhosts1Size: 0.03
  _sunFlaresGhosts1Offset: 1.04
  _sunFlaresGhosts1Brightness: 0.037
  _sunFlaresGhosts2Size: 0.1
  _sunFlaresGhosts2Offset: 0.71
  _sunFlaresGhosts2Brightness: 0.03
  _sunFlaresGhosts3Size: 0.24
  _sunFlaresGhosts3Brightness: 0.025
  _sunFlaresGhosts3Offset: 0.31
  _sunFlaresGhosts4Size: 0.016
  _sunFlaresGhosts4Offset: 0
  _sunFlaresGhosts4Brightness: 0.017
  _sunFlaresHaloOffset: 0.22
  _sunFlaresHaloAmplitude: 15.1415
  _sunFlaresHaloIntensity: 0.01
  isDirty: 0
  bMat: {fileID: 0}
--- !u!124 &124394914384526778
Behaviour:
  m_ObjectHideFlags: 1
  m_PrefabParentObject: {fileID: 0}
  m_PrefabInternal: {fileID: 100100000}
  m_GameObject: {fileID: 1594268665238676}
  m_Enabled: 1
