%YAML 1.1
%TAG !u! tag:unity3d.com,2011:
--- !u!21 &2100000
Material:
  serializedVersion: 6
  m_ObjectHideFlags: 0
  m_CorrespondingSourceObject: {fileID: 0}
  m_PrefabInternal: {fileID: 0}
  m_Name: Clouds+Concrete+Snow+Fence+LHBottom SOLID
  m_Shader: {fileID: 4800000, guid: 078b2a90d062e49c9903390f113619d3, type: 3}
  m_ShaderKeywords: BACK_SOLID_ON COLR_1_2 FRONT_SOLID_ON LEFT_SOLID_ON LIGHTMAP_COLR_ON
    RIGHT_SOLID_ON
  m_LightmapFlags: 5
  m_EnableInstancingVariants: 0
  m_DoubleSidedGI: 0
  m_CustomRenderQueue: 2000
  stringTagMap: {}
  disabledShaderPasses: []
  m_SavedProperties:
    serializedVersion: 3
    m_TexEnvs:
    - _LayoutTexture:
        m_Texture: {fileID: 0}
        m_Scale: {x: 1, y: 1}
        m_Offset: {x: 0, y: 0}
    - _MainTex:
        m_Texture: {fileID: 0}
        m_Scale: {x: 1, y: 1}
        m_Offset: {x: 0, y: 0}
    m_Floats:
    - _AmbientPower: 0.04
    - _DistanceNear: 50
    - _FogAnimationFreq: 0.1
    - _FogAnimationHeight: 0.1
    - _FogDensity: 1
    - _FogEnd: 50
    - _FogHeight: 126.5
    - _FogStart: 0
    - _FogYStartPos: -66.6
    - _GradientHeight: 10
    - _GradientYStartPos: 0
    - _LayoutTexturePower: 0
    - _LightmapPower: 1.81
    - _MaxY: 50
    - _MinY: -50
    - _RimPower: 0.15
    - _ShadowPower: 1
    - _UseFogDistance: 0
    - _UseLightMap: 1
    m_Colors:
    - _AmbientColor: {r: 1, g: 0.784, b: 0, a: 0}
    - _BackBottomColor: {r: 0.7803922, g: 1, b: 0.9725491, a: 0}
    - _BackColor: {r: 0.7794118, g: 1, b: 0.9726167, a: 0}
    - _BackTopColor: {r: 0.7803922, g: 1, b: 0.9725491, a: 0}
    - _BaseScale: {r: 1, g: 1, b: 1, a: 0}
    - _BottomColor: {r: 0.654902, g: 0.8588236, b: 0.8470589, a: 0}
    - _Color: {r: 1, g: 1, b: 1, a: 1}
    - _ColorFar: {r: 0.89705896, g: 0, b: 1, a: 1}
    - _ColorNear: {r: 0, g: 1, b: 1, a: 1}
    - _FogColor: {r: 1, g: 1, b: 1, a: 1}
    - _FrontBottomColor: {r: 0.7607844, g: 0.7607844, b: 0.7607844, a: 0}
    - _FrontColor: {r: 0.7607844, g: 0.7607844, b: 0.7607844, a: 0}
    - _FrontTopColor: {r: 0.7607844, g: 0.7607844, b: 0.7607844, a: 0}
    - _LeftBottomColor: {r: 0.17976859, g: 0.86909914, b: 0.97794116, a: 0}
    - _LeftColor: {r: 0.8235294, g: 0.9736698, b: 1, a: 0}
    - _LeftTopColor: {r: 0.17976859, g: 0.86909914, b: 0.97794116, a: 0}
    - _LightTint: {r: 1, g: 1, b: 1, a: 0}
    - _LightmapColor: {r: 0.9686275, g: 0.67058825, b: 0.50980395, a: 0}
    - _Point: {r: -38.3, g: 25.26, b: -4.15, a: 1}
    - _RightBottomColor: {r: 0.8078432, g: 0.9607844, b: 0.9960785, a: 0}
    - _RightColor: {r: 0.8088235, g: 0.9604462, b: 1, a: 0}
    - _RightTopColor: {r: 0.8078432, g: 0.9607844, b: 0.9960785, a: 0}
    - _RimColor: {r: 0, g: 1, b: 0, a: 0}
    - _TopColor: {r: 0.6039216, g: 0.6039216, b: 0.6039216, a: 0}
