%YAML 1.1
%TAG !u! tag:unity3d.com,2011:
--- !u!21 &2100000
Material:
  serializedVersion: 6
  m_ObjectHideFlags: 0
  m_CorrespondingSourceObject: {fileID: 0}
  m_PrefabInternal: {fileID: 0}
  m_Name: HouseConcrete GRADIENT
  m_Shader: {fileID: 4800000, guid: 078b2a90d062e49c9903390f113619d3, type: 3}
  m_ShaderKeywords: BACK_GRADIENT_ON COLR_1_2 FRONT_GRADIENT_ON LEFT_GRADIENT_ON LIGHTMAP_COLR_ON
    RIGHT_GRADIENT_ON
  m_LightmapFlags: 5
  m_EnableInstancingVariants: 0
  m_DoubleSidedGI: 0
  m_CustomRenderQueue: 2000
  stringTagMap: {}
  disabledShaderPasses: []
  m_SavedProperties:
    serializedVersion: 3
    m_TexEnvs:
    - _LayoutTexture:
        m_Texture: {fileID: 0}
        m_Scale: {x: 1, y: 1}
        m_Offset: {x: 0, y: 0}
    - _MainTex:
        m_Texture: {fileID: 0}
        m_Scale: {x: 1, y: 1}
        m_Offset: {x: 0, y: 0}
    m_Floats:
    - _AmbientPower: 0.04
    - _DistanceNear: 50
    - _FogAnimationFreq: 0.1
    - _FogAnimationHeight: 0.1
    - _FogDensity: 1
    - _FogEnd: 50
    - _FogHeight: 126.5
    - _FogStart: 0
    - _FogYStartPos: -66.6
    - _GradientHeight: 3.02
    - _GradientYStartPos: -2.36
    - _IsWorldSpace: 1
    - _LayoutTexturePower: 0
    - _LightmapPower: 0.2
    - _MaxY: 50
    - _MinY: -50
    - _RimPower: 0.15
    - _ShadowPower: 1
    - _UseFogDistance: 0
    - _UseLightMap: 1
    m_Colors:
    - _AmbientColor: {r: 1, g: 0.784, b: 0, a: 0}
    - _BackBottomColor: {r: 1, g: 1, b: 1, a: 0}
    - _BackColor: {r: 0.9490197, g: 0.57254905, b: 0.90747803, a: 0}
    - _BackTopColor: {r: 0.9490197, g: 0.57254905, b: 0.9058824, a: 0}
    - _BaseScale: {r: 1, g: 1, b: 1, a: 0}
    - _BottomColor: {r: 1, g: 1, b: 1, a: 0}
    - _Color: {r: 1, g: 1, b: 1, a: 1}
    - _ColorFar: {r: 0.89705896, g: 0, b: 1, a: 1}
    - _ColorNear: {r: 0, g: 1, b: 1, a: 1}
    - _FogColor: {r: 1, g: 1, b: 1, a: 1}
    - _FrontBottomColor: {r: 0.3019608, g: 0.654902, b: 0.95294124, a: 0}
    - _FrontColor: {r: 0.20544982, g: 0.39703795, b: 0.5588235, a: 0}
    - _FrontTopColor: {r: 0.20392159, g: 0.39607847, b: 0.56078434, a: 0}
    - _LeftBottomColor: {r: 0.16078432, g: 0.16329959, b: 0.5254902, a: 0}
    - _LeftColor: {r: 0.9450981, g: 0.2980393, b: 0.3917511, a: 0}
    - _LeftTopColor: {r: 0.9450981, g: 0.29803923, b: 0.3921569, a: 0}
    - _LightTint: {r: 1, g: 1, b: 1, a: 0}
    - _LightmapColor: {r: 0, g: 0, b: 0, a: 0}
    - _Point: {r: -38.3, g: 25.26, b: -4.15, a: 1}
    - _RightBottomColor: {r: 0.8068228, g: 0.13802983, b: 0.8161765, a: 0}
    - _RightColor: {r: 0.29803923, g: 0.7843138, b: 0.9450981, a: 0}
    - _RightTopColor: {r: 0.29803923, g: 0.7843138, b: 0.9450981, a: 0}
    - _RimColor: {r: 0, g: 1, b: 0, a: 0}
    - _TopColor: {r: 1, g: 1, b: 1, a: 0}
